\relax 
\providecommand\hyper@newdestlabel[2]{}
\providecommand\HyperFirstAtBeginDocument{\AtBeginDocument}
\HyperFirstAtBeginDocument{\ifx\hyper@anchor\@undefined
\global\let\oldcontentsline\contentsline
\gdef\contentsline#1#2#3#4{\oldcontentsline{#1}{#2}{#3}}
\global\let\oldnewlabel\newlabel
\gdef\newlabel#1#2{\newlabelxx{#1}#2}
\gdef\newlabelxx#1#2#3#4#5#6{\oldnewlabel{#1}{{#2}{#3}}}
\AtEndDocument{\ifx\hyper@anchor\@undefined
\let\contentsline\oldcontentsline
\let\newlabel\oldnewlabel
\fi}
\fi}
\global\let\hyper@last\relax 
\gdef\HyperFirstAtBeginDocument#1{#1}
\providecommand\HyField@AuxAddToFields[1]{}
\providecommand\HyField@AuxAddToCoFields[2]{}
\Newlabel{1}{a}
\Newlabel{2}{b}
\Newlabel{3}{c}
\@writefile{toc}{\contentsline {section}{\numberline {1}Introduction}{1}{section.1}\protected@file@percent }
\newlabel{sec:intro}{{1}{1}{Introduction}{section.1}{}}
\@writefile{lot}{\contentsline {table}{\numberline {1}{\ignorespaces A timeline of the technical team and development milestones.}}{3}{table.1}\protected@file@percent }
\newlabel{tab:timeline}{{1}{3}{A timeline of the technical team and development milestones}{table.1}{}}
\@writefile{toc}{\contentsline {section}{\numberline {2}A Brief History of AUMI development}{4}{section.2}\protected@file@percent }
\@writefile{toc}{\contentsline {subsection}{\numberline {2.1}Pre-McGill}{4}{subsection.2.1}\protected@file@percent }
\@writefile{toc}{\contentsline {subsection}{\numberline {2.2}Transition to McGill University (2011)}{6}{subsection.2.2}\protected@file@percent }
\@writefile{toc}{\contentsline {subsection}{\numberline {2.3}2012 - 2014}{7}{subsection.2.3}\protected@file@percent }
\@writefile{toc}{\contentsline {subsubsection}{\numberline {2.3.1}AUMI for iOS}{8}{subsubsection.2.3.1}\protected@file@percent }
\@writefile{toc}{\contentsline {subsection}{\numberline {2.4}A brand new AUMI (2015 - 2017)}{9}{subsection.2.4}\protected@file@percent }
\@writefile{toc}{\contentsline {subsection}{\numberline {2.5}Here and now (2018 - present)}{11}{subsection.2.5}\protected@file@percent }
\@writefile{toc}{\contentsline {section}{\numberline {3}Looking forward}{12}{section.3}\protected@file@percent }
\@writefile{toc}{\contentsline {subsection}{\numberline {3.1}A web-based AUMI}{13}{subsection.3.1}\protected@file@percent }
\@writefile{toc}{\contentsline {subsection}{\numberline {3.2}Physical interfaces}{14}{subsection.3.2}\protected@file@percent }
\newlabel{sec:physical-interfaces}{{3.2}{14}{Physical interfaces}{subsection.3.2}{}}
\@writefile{toc}{\contentsline {section}{\numberline {4}Conclusion}{15}{section.4}\protected@file@percent }
